Example of rcristin use • rcristin
…
First, we need to establish the search parameters. In this case we want results for a particular unit that belongs to an institution, but we don’t want to download all results for the whole institution. We need to specify the unit parameter, as well as published_since.

UiT has the institutional ID of 186 in the Cristin base, and a look at the units list for this institution we can see that SESAM has the unit ID of 186.33.85.0.

The call to get_cristin_results() looks as follows:

sesam_results <- get_cristin_results(
  unit = "186.33.85.0",
  published_since = 2015
  )

This yields a tibble with 362 results, with a lot of metadata contained in the columns:

sesam_results
#> # A tibble: 362 x 56
#>   cristin_result_~ result_url category_code title year_published date_published
#>   <chr>            <chr>      <chr>         <chr> <chr>          <chr>         
#> 1 1214492          https://a~ MEDIAINTERVI~ "GEN~ 2015           2015-01-23T00~
#> 2 1210116          https://a~ ANTHOLOGYACA  "Sav~ 2017           <NA>          
#> 3 1229676          https://a~ READEROPINION "Hva~ 2015           2015-03-03T00~
#> 4 1258447          https://a~ ARTICLE       "Hun~ 2015           <NA>          
#> 5 1261075          https://a~ ARTICLE       "\"S~ 2015           <NA>          
#> # ... with 357 more rows, and 50 more variables: links <list>,
#> #   open_access <chr>, original_language <chr>, issue <chr>,
#> #   number_of_pages <chr>, international_standard_numbers <list>,
#> #   year_printed <chr>, year_reported <chr>, year_online <chr>, volume <chr>,
#> #   organiser <chr>, funding_sources <list>, projects <list>,
#> #   import_sources <list>, category_name_en <chr>, contributors_url <chr>,
#> #   contributors_count <int>, contributors_preview <list>, created_date <chr>,
#> #   last_modified_date <chr>, channel_title <chr>,
#> #   publisher_cristin_publisher_id <chr>, publisher_name <chr>,
…
This can be summarised in various ways. For example, by counting the number of results per year:

sesam_results %>% 
  count(year_published)
#> # A tibble: 6 x 2
#>   year_published     n
#>   <chr>          <int>
#> 1 2015              60
#> 2 2016              63
#> 3 2017              67
#> 4 2018              53
#> 5 2019              64
#> # ... with 1 more row

Looks like a pretty stable output over time. What are the types of results?

sesam_results %>% 
  count(category_name_en, sort = TRUE)
#> # A tibble: 33 x 2
#>   category_name_en                              n
#>   <chr>                                     <int>
#> 1 Academic lecture                             73
#> 2 Lecture                                      69
#> 3 Academic article                             39
#> 4 Academic chapter/article/Conference paper    39
#> 5 Interview                                    36
#> # ... with 28 more rows
…
sesam_contributors <- get_contributor_info(sesam_pubs)

The 87 publications has a total of 241 affiliated contributors. How many publications have authors from other institutions?

sesam_copublishers <- sesam_contributors %>%
  filter(
    cristin_institution_id != 186
    )

There are 30 publications with authors from outside SESAM, but some of these have many co-authors from other institutions.

sesam_copublishers %>%
  count(unit_name, sort = TRUE)
#> # A tibble: 40 x 2
#>   unit_name                               n
#>   <chr>                               <int>
#> 1 Stockholm University                   10
#> 2 Sámi University of Applied Sciences     9
#> 3 Unknown                                 9
#> 4 NORCE Samfunn                           7
#> 5 Russian Academy of Sciences             7
#> # ... with 35 more rows
…
