Get results from the Cristin API — get_cristin_results • rcristin
…
modified_before Results modified before and inclusive the given
date, (yyyy-mm-dd), e.g: 2005-03-17 * year_reported The year a
result was reported * project_code Project code is the internal
reference number used by funding source * funding_source Funding
source code e.g: NFR * funding Funding source code e.g: NFR, and
project_code together separated by ':' 'NFR:1234' means 'funding_source':
'NFR' with 'project_code': '1234' * lang Two letter language code
that determines value of fields such as institution name, one of 'en'
(default), 'nb', or 'nn'.

    Examples

get_cristin_results(contributor = "25062")

#> # A tibble: 53 x 53
#>    cristin_result_~ result_url category_code title year_published
#>    <chr>            <chr>      <chr>         <chr> <chr>         
#>  1 235561           https://a~ ACADEMICLECT~ Rene~ 2008          
#>  2 243774           https://a~ ACADEMICLECT~ Cons~ 2009          
#>  3 249116           https://a~ ACADEMICLECT~ Wher~ 2009          
#>  4 254999           https://a~ ACADEMICLECT~ Unde~ 2010          
#>  5 255746           https://a~ ACADEMICLECT~ Enac~ 2010          
#>  6 255798           https://a~ ACADEMICLECT~ Bill~ 2010          
#>  7 251539           https://a~ ACADEMICLECT~ Rene~ 2010          
#>  8 1051805          https://a~ ACADEMICLECT~ Towa~ 2013          
#>  9 1051810          https://a~ LECTUREPOPUL~ Bør ~ 2013          
#> 10 1051802          https://a~ ACADEMICLECT~ The ~ 2013          
#> # ... with 43 more rows, and 48 more variables: funding_sources <list>,
#> #   open_access <chr>, original_language <chr>, organiser <chr>, links <list>,
#> #   year_reported <chr>, import_sources <list>, year_online <chr>,
#> #   volume <chr>, date_published <chr>, issue <chr>, number_of_pages <chr>,
#> #   projects <list>, international_standard_numbers <list>, year_printed <chr>,
#> #   category_name_en <chr>, contributors_url <chr>, contributors_count <int>,
#> #   contributors_preview <list>, created_date <chr>, last_modified_date <chr>,
#> #   event_name <chr>, event_location <chr>, event_date_from <chr>,
#> #   event_date_to <chr>, event_arranged_by_name <chr>, channel_title <chr>,
…
